patient_id_ap;filter;Start_Tage;Stop_Tage;date;Ausgangsstatus;Endstatus;Therapiesequenz_1;Metastasen ja/nein;OP ja/nein;OP Art;OP_Auswertung;HISTO_GRADING;DIAGNOSEDATUM;GESCHLECHT;Geschlecht_Zahlen;Status_NA;ALTER_ED;Diagnose Jahr;LETZTE_INFO_DATUM;Überlebenszeit_Tage;DATUM_ERSTE_PROGRESSION;Tage_1.Progress;DATUM_ERSTES_REZIDIV;Tage_Rezidiv;;;
1;0;0;94;15.01.14;0;0;0;0;0;0;1;1;13.10.13;M;0;0;70;2013;25.09.19;2173;.;.;.;.;;;
1;0;94;2173;25.09.19;3;3;7;0;1;1;1;1;13.10.13;M;0;0;70;2013;25.09.19;2173;.;.;.;.;;;
2;0;0;1;04.02.12;0;0;0;1;0;0;1;1;04.02.12;W;1;1;73;2012;05.07.16;1613;.;.;.;.;;;
2;0;1;1613;05.07.16;3;3;8;1;1;6;1;1;04.02.12;W;1;1;73;2012;05.07.16;1613;.;.;.;.;;;
3;0;0;114;22.10.12;0;0;0;1;0;0;1;2;15.08.12;M;0;0;50;2012;03.08.19;2544;20.02.13;189;14.02.15;913;;;
3;0;114;145;07.01.13;0;0;0;1;1;7;1;2;15.08.12;M;0;0;50;2012;03.08.19;2544;20.02.13;189;14.02.15;913;;;
3;0;145;915;16.02.15;5;5;0;1;1;4;1;2;15.08.12;M;0;0;50;2012;03.08.19;2544;20.02.13;189;14.02.15;913;;;
3;0;915;2544;03.08.19;5;5;2;1;1;0;1;2;15.08.12;M;0;0;50;2012;03.08.19;2544;20.02.13;189;14.02.15;913;;;
4;0;0;14;30.11.11;0;0;0;1;0;0;1;2;16.11.11;M;0;1;49;2011;06.01.15;1147;08.01.12;53;.;.;;;
4;1;14;53;08.01.12;2;2;1;1;0;0;1;2;16.11.11;M;0;1;49;2011;06.01.15;1147;08.01.12;53;.;.;;;
4;1;53;74;29.01.12;5;5;1;1;1;4;1;2;16.11.11;M;0;1;49;2011;06.01.15;1147;08.01.12;53;.;.;;;
4;1;74;157;21.04.12;5;5;1;1;1;3;1;2;16.11.11;M;0;1;49;2011;06.01.15;1147;08.01.12;53;.;.;;;
4;1;157;970;13.07.14;5;5;1;1;1;0;1;2;16.11.11;M;0;1;49;2011;06.01.15;1147;08.01.12;53;.;.;;;
4;1;970;1147;06.01.15;2;2;1;1;1;0;1;2;16.11.11;M;0;1;49;2011;06.01.15;1147;08.01.12;53;.;.;;;
5;0;0;811;22.04.12;0;0;0;1;0;0;1;2;01.02.10;M;0;1;62;2010;28.03.15;1881;23.04.12;812;.;.;;;
5;1;811;944;02.09.12;2;2;0;1;0;0;1;2;01.02.10;M;0;1;62;2010;28.03.15;1881;23.04.12;812;.;.;;;
5;1;944;1320;13.09.13;5;5;0;1;1;3;1;2;01.02.10;M;0;1;62;2010;28.03.15;1881;23.04.12;812;.;.;;;
5;1;1320;1881;28.03.15;2;2;1;1;1;0;1;2;01.02.10;M;0;1;62;2010;28.03.15;1881;23.04.12;812;.;.;;;
6;0;0;1;04.09.12;0;0;0;1;0;0;1;1;04.09.12;M;0;0;58;2012;19.04.16;1323;19.09.12;15;.;.;;;
6;0;1;1246;02.02.16;5;5;0;1;1;2;1;1;04.09.12;M;0;0;58;2012;19.04.16;1323;19.09.12;15;.;.;;;
6;1;1246;2584;02.10.19;2;2;1;1;1;0;1;1;04.09.12;M;0;0;58;2012;02.10.19;1323;19.09.12;15;.;.;;;
7;0;0;235;04.06.12;0;0;0;1;0;0;1;2;13.10.11;W;1;0;70;2011;01.04.19;2727;10.01.12;89;.;.;;;
7;0;347;355;02.10.12;5;5;0;1;1;7;1;2;13.10.11;W;1;0;70;2011;01.04.19;2727;10.01.12;89;.;.;;;
7;1;355;2727;01.04.19;2;2;2;1;1;0;1;2;13.10.11;W;1;0;70;2011;01.04.19;2727;10.01.12;89;.;.;;;
8;0;0;68;21.04.12;0;0;0;1;0;0;1;2;13.02.12;W;1;0;60;2012;10.06.19;2674;11.11.14;1002;25.05.15;1197;;;
8;0;68;328;06.01.13;5;5;0;1;1;6;1;2;13.02.12;W;1;0;60;2012;10.06.19;2674;11.11.14;1002;25.05.15;1197;;;
8;0;328;832;25.05.14;2;2;1;1;1;0;1;2;13.02.12;W;1;0;60;2012;10.06.19;2674;11.11.14;1002;25.05.15;1197;;;
8;1;832;2674;10.06.19;2;2;1;1;1;0;1;2;13.02.12;W;1;0;60;2012;10.06.19;2674;11.11.14;1002;25.05.15;1197;;;
9;0;0;1;13.01.12;0;0;0;1;0;0;1;1;13.01.12;M;0;0;57;2012;16.07.19;2741;02.10.12;263;.;.;;;
9;0;1;821;13.04.14;5;5;0;1;1;2;1;1;13.01.12;M;0;0;57;2012;16.07.19;2741;02.10.12;263;.;.;;;
9;1;821;2741;16.07.19;2;2;6;1;1;0;1;1;13.01.12;M;0;0;57;2012;16.07.19;2741;02.10.12;263;.;.;;;
10;0;0;78;17.12.12;0;0;0;0;0;0;1;1;30.09.12;M;0;0;48;2012;23.02.15;876;.;.;.;.;;;
10;0;78;2561;05.10.19;3;3;7;0;1;3;1;1;30.09.12;M;0;0;48;2012;23.02.15;876;.;.;.;.;;;
11;0;0;1;13.07.12;0;0;0;0;0;0;1;2;13.07.12;M;0;0;60;2012;24.09.19;2629;.;.;.;.;;;
11;0;1;2629;24.09.19;3;3;7;0;1;2;1;2;13.07.12;M;0;0;60;2012;24.09.19;2629;.;.;.;.;;;
12;0;0;1;31.05.09;0;0;0;0;0;0;1;1;31.05.09;M;0;1;74;2009;10.06.15;2201;.;.;.;.;;;
12;0;1;2201;10.06.15;3;3;7;0;1;2;1;1;31.05.09;M;0;1;74;2009;10.06.15;2201;.;.;.;.;;;
13;0;0;35;12.05.13;0;0;0;1;0;0;1;2;07.04.13;W;1;0;65;2013;17.06.18;1897;26.11.13;233;.;.;;;
13;0;35;505;25.08.14;5;5;0;1;1;1;1;2;07.04.13;W;1;0;65;2013;17.06.18;1897;26.11.13;233;.;.;;;
13;1;505;1897;17.06.18;2;2;1;1;1;0;1;2;07.04.13;W;1;0;65;2013;17.06.18;1897;26.11.13;233;.;.;;;
14;0;0;244;09.02.13;0;0;0;1;0;0;1;2;10.06.12;M;0;0;51;2012;09.02.13;244;.;.;.;.;;;
15;0;0;2688;29.09.19;0;0;0;1;0;0;1;1;20.05.12;M;0;0;58;2012;04.06.12;15;.;.;.;.;;;
16;0;0;1;27.08.13;0;0;0;0;0;0;1;1;27.08.13;M;0;1;80;2013;12.10.15;776;.;.;.;.;;;
16;0;1;776;12.10.15;3;3;7;0;1;2;1;1;27.08.13;M;0;1;80;2013;12.10.15;776;.;.;.;.;;;
17;0;0;1;06.07.10;0;0;0;1;0;0;1;2;06.07.10;W;1;0;34;2010;24.07.19;3305;11.08.13;1132;11.08.13;1132;;;
17;0;1;1132;11.08.13;3;3;0;1;1;2;1;2;06.07.10;W;1;0;34;2010;24.07.19;3305;11.08.13;1132;11.08.13;1132;;;
17;0;1132;1210;28.10.13;2;2;0;1;1;0;1;2;06.07.10;W;1;0;34;2010;24.07.19;3305;11.08.13;1132;11.08.13;1132;;;
17;0;1210;1300;26.01.14;5;5;0;1;1;4;1;2;06.07.10;W;1;0;34;2010;24.07.19;3305;11.08.13;1132;11.08.13;1132;;;
17;1;1300;3305;24.07.19;2;2;2;1;1;0;1;2;06.07.10;W;1;0;34;2010;24.07.19;3305;11.08.13;1132;11.08.13;1132;;;
18;0;0;9;28.08.13;0;0;0;0;0;0;1;1;19.08.13;M;0;0;43;2013;04.05.19;2084;.;.;.;.;;;
18;0;9;2084;04.05.19;3;3;7;0;1;3;1;1;19.08.13;M;0;0;43;2013;04.05.19;2084;.;.;.;.;;;
19;0;0;1;01.12.13;0;0;0;0;0;0;1;1;01.12.13;M;0;0;63;2013;25.09.19;2124;.;.;.;.;;;
19;0;1;2124;25.09.19;3;3;7;0;1;2;1;1;01.12.13;M;0;0;63;2013;25.09.19;2124;.;.;.;.;;;
20;0;0;68;13.07.14;0;0;0;1;0;0;1;2;06.05.14;M;0;1;57;2014;13.04.17;1073;09.07.14;64;.;.;;;
20;0;68;83;28.07.14;5;5;0;1;1;7;1;2;06.05.14;M;0;1;57;2014;13.04.17;1073;09.07.14;64;.;.;;;
20;0;83;727;02.05.16;5;5;1;1;1;0;1;2;06.05.14;M;0;1;57;2014;13.04.17;1073;09.07.14;64;.;.;;;
20;1;727;1073;13.04.17;2;2;1;1;1;0;1;2;06.05.14;M;0;1;57;2014;13.04.17;1073;09.07.14;64;.;.;;;
21;0;0;29;11.11.07;0;0;0;1;0;0;1;1;13.10.07;M;0;0;58;2007;16.08.19;4325;10.05.14;2401;10.05.14;2401;;;
21;0;29;2460;08.07.14;3;3;0;1;1;2;1;1;13.10.07;M;0;0;58;2007;16.08.19;4325;10.05.14;2401;10.05.14;2401;;;
21;1;2460;3395;28.01.17;2;2;0;1;1;5;1;1;13.10.07;M;0;0;58;2007;16.08.19;4325;10.05.14;2401;10.05.14;2401;;;
21;1;3395;3746;14.01.18;2;2;1;1;1;0;1;1;13.10.07;M;0;0;58;2007;16.08.19;4325;10.05.14;2401;10.05.14;2401;;;
21;1;3746;4325;16.08.19;3;3;1;1;1;0;1;1;13.10.07;M;0;0;58;2007;16.08.19;4325;10.05.14;2401;10.05.14;2401;;;
22;0;0;1;13.09.14;0;0;0;0;0;0;1;1;13.09.14;M;0;0;31;2014;24.09.19;1837;.;.;.;.;;;
22;0;1;1837;24.09.19;3;3;7;0;1;2;1;1;13.09.14;M;0;0;31;2014;24.09.19;1837;.;.;.;.;;;
23;0;0;126;21.06.15;0;0;0;1;0;0;1;1;15.02.15;M;0;1;74;2015;29.07.15;164;.;.;.;.;;;
23;0;126;164;29.07.15;5;5;8;1;1;3;1;1;15.02.15;M;0;1;74;2015;29.07.15;164;.;.;.;.;;;
24;0;0;60;24.03.15;0;0;0;1;0;0;1;1;23.01.15;W;1;0;60;2015;21.04.19;1549;17.03.15;53;.;.;;;
24;1;60;103;06.05.15;2;2;2;1;0;0;1;1;23.01.15;W;1;0;60;2015;21.04.19;1549;17.03.15;53;.;.;;;
24;0;103;1549;21.04.19;5;5;2;1;1;2;1;1;23.01.15;W;1;0;60;2015;21.04.19;1549;17.03.15;53;.;.;;;
25;0;0;422;24.08.15;0;0;0;0;0;0;1;1;28.06.14;W;1;0;46;2014;13.07.19;1841;.;.;.;.;;;
25;0;422;1841;13.07.19;3;3;7;0;1;3;1;1;28.06.14;W;1;0;46;2014;13.07.19;1841;.;.;.;.;;;
26;0;0;31;13.09.12;0;0;0;1;0;0;1;1;13.08.12;W;1;0;52;2012;04.03.19;2394;30.09.14;778;.;.;;;
26;0;31;122;13.12.12;0;5;3;1;0;0;1;1;13.08.12;W;1;0;52;2012;04.03.19;2394;30.09.14;778;.;.;;;
26;0;122;778;30.09.14;5;5;3;1;1;3;1;1;13.08.12;W;1;0;52;2012;04.03.19;2394;30.09.14;778;.;.;;;
26;1;778;2394;04.03.19;2;2;3;1;1;0;1;1;13.08.12;W;1;0;52;2012;04.03.19;2394;30.09.14;778;.;.;;;
27;0;0;31;13.08.12;0;0;0;1;0;0;1;2;13.07.12;W;1;0;63;2012;17.06.19;2530;.;.;.;.;;;
27;0;31;2530;17.06.19;3;3;8;1;1;6;1;2;13.07.12;W;1;0;63;2012;17.06.19;2530;.;.;.;.;;;
28;0;0;1;13.06.15;0;0;0;1;0;0;1;2;13.06.15;W;1;0;52;2015;08.01.19;1305;07.09.15;86;07.09.15;86;;;
28;0;1;105;26.09.15;3;3;0;1;1;6;1;2;13.06.15;W;1;0;52;2015;08.01.19;1305;07.09.15;86;07.09.15;86;;;
28;1;105;1305;08.01.19;2;2;2;1;1;0;1;2;13.06.15;W;1;0;52;2015;08.01.19;1305;07.09.15;86;07.09.15;86;;;
29;0;0;1;11.10.15;0;0;0;0;0;0;1;1;11.10.15;W;1;0;71;2015;24.09.19;1444;.;.;.;.;;;
29;0;1;1444;24.09.19;3;3;7;0;1;7;1;1;11.10.15;W;1;0;71;2015;24.09.19;1444;.;.;.;.;;;
30;0;0;36;21.03.16;0;1;0;1;0;0;1;1;14.02.16;M;0;1;59;2016;21.03.16;36;.;.;.;.;;;
31;0;0;7;29.02.16;0;0;0;0;0;0;1;1;22.02.16;M;0;0;81;2016;25.09.19;1311;.;.;.;.;;;
31;0;7;1311;25.09.19;3;3;7;0;1;1;1;1;22.02.16;M;0;0;81;2016;25.09.19;1311;.;.;.;.;;;
32;0;0;70;30.05.16;0;0;0;1;0;0;1;2;21.03.16;M;0;0;59;2016;03.08.19;1230;05.09.16;168;.;.;;;
32;0;70;216;23.10.16;5;5;0;1;1;7;1;2;21.03.16;M;0;0;59;2016;03.08.19;1230;05.09.16;168;.;.;;;
32;1;216;1230;03.08.19;2;2;2;1;1;0;1;2;21.03.16;M;0;0;59;2016;03.08.19;1230;05.09.16;168;.;.;;;
33;0;0;44;15.08.16;0;0;0;0;0;0;1;1;02.07.16;W;1;0;56;2016;16.09.19;1171;.;.;.;.;;;
33;0;44;1171;16.09.19;3;3;7;0;1;3;1;1;02.07.16;W;1;0;56;2016;16.09.19;1171;.;.;.;.;;;
34;0;0;1581;13.05.97;0;0;0;0;0;0;1;2;13.01.93;M;0;0;53;1993;12.11.18;9434;31.03.12;7017;31.03.12;7017;;;
34;0;1581;7060;13.05.12;3;3;0;0;1;3;1;2;13.01.93;M;0;0;53;1993;12.11.18;9434;31.03.12;7017;31.03.12;7017;;;
34;1;7060;9434;12.11.18;2;2;2;1;1;0;1;2;13.01.93;M;0;0;53;1993;12.11.18;9434;31.03.12;7017;31.03.12;7017;;;
35;0;0;90;05.10.15;0;0;0;1;0;0;1;1;07.07.15;M;0;0;47;2015;17.09.19;1533;20.01.19;1293;20.01.19;1293;;;
35;0;90;1293;20.01.19;3;3;7;1;1;1;1;1;07.07.15;M;0;0;47;2015;17.09.19;1533;20.01.19;1293;20.01.19;1293;;;
35;0;1293;1533;17.09.19;2;2;7;1;1;1;1;1;07.07.15;M;0;0;47;2015;17.09.19;1533;20.01.19;1293;20.01.19;1293;;;
36;0;0;75;24.09.16;0;0;0;0;0;0;1;1;11.07.16;W;1;1;79;2016;04.01.17;177;.;.;.;.;;;
36;0;75;177;04.01.17;1;1;2;1;0;0;1;1;11.07.16;W;1;1;79;2016;04.01.17;177;.;.;.;.;;;
37;0;0;154;01.05.17;0;0;0;0;0;0;1;1;28.11.16;M;0;0;71;2016;03.06.19;917;.;.;.;.;;;
37;0;154;917;03.06.19;3;3;7;0;1;2;1;1;28.11.16;M;0;0;71;2016;03.06.19;917;.;.;.;.;;;
38;0;0;58;26.07.16;0;0;0;1;0;0;1;1;29.05.16;W;1;0;72;2016;08.05.19;1074;.;.;.;.;;;
38;0;58;386;19.06.17;5;5;2;1;0;0;1;1;29.05.16;W;1;0;72;2016;08.05.19;1074;.;.;.;.;;;
38;0;386;1074;08.05.19;5;5;2;1;1;3;1;1;29.05.16;W;1;0;72;2016;08.05.19;1074;.;.;.;.;;;
39;0;0;183;14.12.15;0;0;3;1;0;0;1;2;14.06.15;W;1;1;56;2015;20.02.17;617;14.12.15;183;.;.;;;
39;1;183;617;20.02.17;2;2;3;1;0;0;1;2;14.06.15;W;1;1;56;2015;20.02.17;617;14.12.15;183;.;.;;;
40;0;0;147;07.12.16;0;3;0;1;0;0;1;2;13.07.16;W;1;0;55;2016;08.07.19;1090;28.02.17;230;28.02.17;230;;;
40;0;147;241;11.03.17;3;3;0;1;1;6;1;2;13.07.16;W;1;0;55;2016;08.07.19;1090;28.02.17;230;28.02.17;230;;;
40;1;241;357;11.07.17;2;2;2;1;1;0;1;2;13.07.16;W;1;0;55;2016;08.07.19;1090;28.02.17;230;28.02.17;230;;;
40;1;357;1090;08.07.19;5;5;2;1;1;0;1;2;13.07.16;W;1;0;55;2016;08.07.19;1090;28.02.17;230;28.02.17;230;;;
41;0;0;1;20.12.16;0;0;0;0;0;0;1;2;20.12.16;M;0;0;68;2016;18.03.17;88;.;.;.;.;;;
41;0;1;88;18.03.17;3;3;7;0;1;2;1;2;20.12.16;M;0;0;68;2016;18.03.17;88;.;.;.;.;;;
42;0;0;26;26.03.17;0;0;0;1;0;0;1;2;28.02.17;M;0;0;57;2017;19.08.19;902;.;.;.;.;;;
42;0;26;854;02.07.19;5;5;0;1;1;3;1;2;28.02.17;M;0;0;57;2017;19.08.19;902;.;.;.;.;;;
42;1;854;937;23.09.19;2;2;1;1;1;0;1;2;28.02.17;M;0;0;57;2017;19.08.19;902;.;.;.;.;;;
43;0;0;64;17.04.17;0;0;2;1;0;0;1;1;12.02.17;W;1;0;69;2017;01.09.19;931;.;.;.;.;;;
43;0;64;931;01.09.19;5;5;2;1;1;2;1;1;12.02.17;W;1;0;69;2017;01.09.19;931;.;.;.;.;;;
44;0;0;271;28.08.17;0;0;1;1;0;0;1;2;30.11.16;W;1;1;64;2016;12.10.17;316;28.08.17;271;.;.;;;
44;1;271;316;12.10.17;2;2;1;1;0;0;1;2;30.11.16;W;1;1;64;2016;12.10.17;316;28.08.17;271;.;.;;;
45;0;0;364;05.02.17;0;0;0;1;0;0;1;2;07.02.16;W;1;0;75;2016;26.08.19;1296;03.08.16;178;.;.;;;
45;1;364;981;15.10.18;2;2;1;1;0;0;1;2;07.02.16;W;1;0;75;2016;26.08.19;1296;03.08.16;178;.;.;;;
45;1;981;1296;26.08.19;5;5;1;1;0;0;1;2;07.02.16;W;1;0;75;2016;26.08.19;1296;03.08.16;178;.;.;;;
46;0;0;2;15.05.17;0;0;0;1;0;0;1;2;13.05.17;W;1;1;73;2017;23.10.18;528;10.07.17;58;.;.;;;
46;0;2;24;06.06.17;5;5;0;1;1;3;1;2;13.05.17;W;1;1;73;2017;23.10.18;528;10.07.17;58;.;.;;;
46;0;24;262;30.01.18;5;5;2;1;1;0;1;2;13.05.17;W;1;1;73;2017;23.10.18;528;10.07.17;58;.;.;;;
46;1;24;528;23.10.18;2;2;2;1;1;0;1;2;13.05.17;W;1;1;73;2017;23.10.18;528;10.07.17;58;.;.;;;
47;0;0;25;13.05.17;0;0;0;1;0;0;1;2;18.04.17;M;0;0;78;2017;21.08.19;855;23.03.19;704;.;.;;;
47;0;25;151;16.09.17;0;0;3;1;0;0;1;2;18.04.17;M;0;0;78;2017;21.08.19;855;23.03.19;704;.;.;;;
47;0;151;704;23.03.19;3;3;3;1;1;3;1;2;18.04.17;M;0;0;78;2017;21.08.19;855;23.03.19;704;.;.;;;
47;0;704;855;21.08.19;2;2;3;1;1;3;1;2;18.04.17;M;0;0;78;2017;21.08.19;855;23.03.19;704;.;.;;;
48;0;0;1;13.03.17;0;0;0;0;0;0;1;1;13.03.17;W;1;0;50;2017;02.10.19;933;.;.;.;.;;;
48;0;1;933;02.10.19;5;5;7;0;1;2;1;1;13.03.17;W;1;0;50;2017;02.10.19;933;.;.;.;.;;;
49;0;0;1;18.07.17;0;0;0;1;0;0;1;1;18.07.17;W;1;0;72;2017;30.07.19;742;.;.;.;.;;;
49;0;1;287;01.05.18;5;5;0;1;1;2;1;1;18.07.17;W;1;0;72;2017;30.07.19;742;.;.;.;.;;;
49;0;287;742;30.07.19;5;5;2;1;1;0;1;1;18.07.17;W;1;0;72;2017;30.07.19;742;.;.;.;.;;;
50;0;0;1;13.11.04;0;0;0;0;0;0;1;0;13.11.04;W;1;0;59;2004;13.05.17;4564;.;.;.;.;;;
50;0;1;4564;13.05.17;3;3;7;0;1;2;1;0;13.11.04;W;1;0;59;2004;13.05.17;4564;.;.;.;.;;;
51;0;0;30;13.12.16;0;0;0;1;0;0;1;1;13.11.16;M;0;1;78;2016;14.09.18;670;24.10.17;345;.;.;;;
51;0;30;345;24.10.17;0;0;3;1;0;0;1;1;13.11.16;M;0;1;78;2016;14.09.18;670;24.10.17;345;.;.;;;
51;1;345;670;14.09.18;2;2;3;1;0;0;1;1;13.11.16;M;0;1;78;2016;14.09.18;670;24.10.17;345;.;.;;;
52;0;0;1;10.09.09;0;0;0;1;0;0;1;1;10.09.09;W;1;1;60;2009;02.02.17;2702;.;.;.;.;;;
52;0;1;63;12.11.09;3;3;0;1;1;3;1;1;10.09.09;W;1;1;60;2009;02.02.17;2702;.;.;.;.;;;
52;0;63;2702;02.02.17;3;3;1;1;1;0;1;1;10.09.09;W;1;1;60;2009;02.02.17;2702;.;.;.;.;;;
53;0;0;1;13.04.93;0;0;0;1;0;0;1;1;13.04.93;M;0;0;40;1993;21.05.19;9534;29.06.02;3364;29.06.02;3364;;;
53;0;1;5479;13.04.08;3;3;0;1;1;3;1;1;13.04.93;M;0;0;40;1993;21.05.19;9534;29.06.02;3364;29.06.02;3364;;;
53;1;5479;5509;13.05.08;2;2;0;1;1;0;1;1;13.04.93;M;0;0;40;1993;21.05.19;9534;29.06.02;3364;29.06.02;3364;;;
53;1;5509;9534;21.05.19;2;2;3;1;1;0;1;1;13.04.93;M;0;0;40;1993;21.05.19;9534;29.06.02;3364;29.06.02;3364;;;
54;0;0;1;13.08.12;0;0;0;0;0;0;1;1;13.08.12;M;0;0;52;2012;04.02.13;175;.;.;.;.;;;
54;0;1;175;04.02.13;3;3;7;0;1;2;1;1;13.08.12;M;0;0;52;2012;04.02.13;175;.;.;.;.;;;
55;0;0;1;13.04.13;0;0;0;1;0;0;1;1;13.04.13;M;0;1;54;2013;04.12.15;965;.;.;.;.;;;
55;0;1;30;13.05.13;5;5;0;1;1;2;1;1;13.04.13;M;0;1;54;2013;04.12.15;965;.;.;.;.;;;
55;0;30;965;04.12.15;5;5;2;1;1;0;1;1;13.04.13;M;0;1;54;2013;04.12.15;965;.;.;.;.;;;
56;0;0;1;13.08.13;0;0;0;0;0;0;1;1;13.08.13;W;1;0;61;2013;21.08.18;1834;.;.;.;.;;;
56;0;1;1834;21.08.18;3;3;7;0;1;3;1;1;13.08.13;W;1;0;61;2013;21.08.18;1834;.;.;.;.;;;
57;0;0;1;13.12.13;0;0;0;1;0;0;1;1;13.12.13;M;0;0;40;2013;29.09.19;2116;21.04.14;129;.;.;;;
57;0;1;163;25.05.14;5;5;0;1;1;3;1;1;13.12.13;M;0;0;40;2013;29.09.19;2116;21.04.14;129;.;.;;;
57;1;163;2116;29.09.19;2;2;1;1;1;0;1;1;13.12.13;M;0;0;40;2013;29.09.19;2116;21.04.14;129;.;.;;;
58;0;0;1;26.06.13;0;0;0;1;0;0;1;1;26.06.13;W;1;1;68;2013;13.08.19;2239;20.01.14;208;20.01.14;208;;;
58;0;1;38;03.08.13;5;5;0;1;1;2;1;1;26.06.13;W;1;1;68;2013;13.08.19;2239;20.01.14;208;20.01.14;208;;;
58;0;38;239;20.02.14;5;5;6;1;1;0;1;1;26.06.13;W;1;1;68;2013;13.08.19;2239;20.01.14;208;20.01.14;208;;;
58;1;239;2239;13.08.19;2;2;6;1;1;0;1;1;26.06.13;W;1;1;68;2013;13.08.19;2239;20.01.14;208;20.01.14;208;;;
59;0;0;1;13.02.14;0;0;0;0;0;0;1;1;13.02.14;M;0;0;54;2014;10.02.19;1823;.;.;.;.;;;
59;0;1;1823;10.02.19;3;3;7;0;1;2;1;1;13.02.14;M;0;0;54;2014;10.02.19;1823;.;.;.;.;;;
60;0;0;1;13.10.14;0;0;0;0;0;0;1;1;13.10.14;M;0;0;62;2014;24.09.19;1807;.;.;.;.;;;
60;0;1;1807;24.09.19;3;3;7;0;1;2;1;1;13.10.14;M;0;0;62;2014;24.09.19;1807;.;.;.;.;;;
61;0;0;1;13.02.12;0;0;0;1;0;0;1;2;13.02.12;W;1;0;67;2012;12.08.19;2737;13.09.14;943;13.09.14;943;;;
61;0;1;973;13.10.14;3;3;0;1;1;2;1;2;13.02.12;W;1;0;67;2012;12.08.19;2737;13.09.14;943;13.09.14;943;;;
61;1;973;2737;12.08.19;2;2;3;1;1;0;1;2;13.02.12;W;1;0;67;2012;12.08.19;2737;13.09.14;943;13.09.14;943;;;
62;0;0;1;31.05.15;0;0;0;1;0;0;1;1;31.05.15;W;1;0;82;2015;13.08.19;1535;13.09.15;105;13.09.15;105;;;
62;0;1;161;08.11.15;3;3;0;1;1;2;1;1;31.05.15;W;1;0;82;2015;13.08.19;1535;13.09.15;105;13.09.15;105;;;
62;1;161;1535;13.08.19;2;2;1;1;1;0;1;1;31.05.15;W;1;0;82;2015;13.08.19;1535;13.09.15;105;13.09.15;105;;;
63;0;0;1;13.07.12;0;0;0;1;0;0;1;1;13.07.12;M;0;0;75;2012;03.07.19;2546;13.10.15;1187;13.10.15;1187;;;
63;0;1;1222;17.11.15;5;5;0;1;1;2;1;1;13.07.12;M;0;0;75;2012;03.07.19;2546;13.10.15;1187;13.10.15;1187;;;
63;1;1222;2546;03.07.19;2;2;2;1;1;0;1;1;13.07.12;M;0;0;75;2012;03.07.19;2546;13.10.15;1187;13.10.15;1187;;;
64;0;0;7;02.10.16;0;0;0;1;0;0;0;2;25.09.16;M;0;1;79;2016;16.09.17;356;07.05.17;224;.;.;;;
64;0;7;224;07.05.17;0;0;2;1;0;0;0;2;25.09.16;M;0;1;79;2016;16.09.17;356;07.05.17;224;.;.;;;
64;1;224;356;16.09.17;2;2;2;1;0;0;0;2;25.09.16;M;0;1;79;2016;16.09.17;356;07.05.17;224;.;.;;;
65;0;0;1;13.07.13;0;0;0;1;0;0;1;2;13.07.13;W;1;1;65;2013;15.06.15;702;25.09.13;74;.;.;;;
65;0;1;30;12.08.13;5;5;0;1;1;3;1;2;13.07.13;W;1;1;65;2013;15.06.15;702;25.09.13;74;.;.;;;
65;0;30;74;25.09.13;5;5;6;1;1;0;1;2;13.07.13;W;1;1;65;2013;15.06.15;702;25.09.13;74;.;.;;;
65;0;74;702;15.06.15;2;2;6;1;1;0;1;2;13.07.13;W;1;1;65;2013;15.06.15;702;25.09.13;74;.;.;;;
66;0;0;116;06.09.17;0;0;0;1;0;0;1;2;13.05.17;M;0;0;51;2017;11.09.19;851;.;.;.;.;;;
66;0;116;851;11.09.19;3;3;8;1;1;7;1;2;13.05.17;M;0;0;51;2017;11.09.19;851;.;.;.;.;;;
67;0;0;28;11.06.18;0;0;0;0;0;0;1;2;14.05.18;M;0;0;76;2018;29.09.19;503;.;.;.;.;;;
67;0;28;503;29.09.19;5;5;7;0;1;1;1;2;14.05.18;M;0;0;76;2018;29.09.19;503;.;.;.;.;;;
68;0;0;1;13.03.97;0;0;0;1;0;0;1;2;13.03.97;M;0;1;43;1997;30.11.17;7567;18.05.08;4084;18.05.08;4084;;;
68;0;1;108;29.06.97;5;5;0;1;1;2;1;2;13.03.97;M;0;1;43;1997;30.11.17;7567;18.05.08;4084;18.05.08;4084;;;
68;0;108;4084;18.05.08;3;3;3;1;1;4;1;2;13.03.97;M;0;1;43;1997;30.11.17;7567;18.05.08;4084;18.05.08;4084;;;
68;0;4084;7567;30.11.17;2;2;3;1;1;0;1;2;13.03.97;M;0;1;43;1997;30.11.17;7567;18.05.08;4084;18.05.08;4084;;;
69;0;0;11;24.05.98;0;0;0;1;0;0;1;1;13.05.98;W;1;1;61;1998;10.08.18;7394;23.01.99;255;23.01.99;255;;;
69;0;11;256;24.01.99;5;5;6;1;1;2;1;1;13.05.98;W;1;1;61;1998;10.08.18;7394;23.01.99;255;23.01.99;255;;;
69;0;256;4122;25.08.09;3;3;6;1;1;1;1;1;13.05.98;W;1;1;61;1998;10.08.18;7394;23.01.99;255;23.01.99;255;;;
69;1;4122;7394;10.08.18;2;2;6;1;1;0;1;1;13.05.98;W;1;1;61;1998;10.08.18;7394;23.01.99;255;23.01.99;255;;;
70;0;0;43;25.09.11;0;0;0;1;0;0;1;2;13.08.11;M;0;1;65;2011;12.03.15;1307;26.11.12;471;26.11.12;471;;;
70;0;43;471;26.11.12;3;3;0;1;1;6;1;2;13.08.11;M;0;1;65;2011;12.03.15;1307;26.11.12;471;26.11.12;471;;;
70;1;471;1178;03.11.14;2;2;0;1;1;0;1;2;13.08.11;M;0;1;65;2011;12.03.15;1307;26.11.12;471;26.11.12;471;;;
70;1;1178;1307;12.03.15;2;2;6;1;1;0;1;2;13.08.11;M;0;1;65;2011;12.03.15;1307;26.11.12;471;26.11.12;471;;;
71;0;0;1;13.11.06;0;0;0;0;0;0;1;0;13.11.06;M;0;1;75;2009;22.01.19;3357;.;.;.;.;;;
71;0;1;3357;22.01.19;3;3;7;0;1;3;1;0;13.11.09;M;0;1;75;2009;22.01.19;3357;.;.;.;.;;;
72;0;0;1;17.11.09;0;0;0;1;0;0;1;1;17.11.09;W;1;0;49;2009;29.06.19;3511;13.03.16;2308;13.03.16;2308;;;
72;0;1;224;29.06.10;3;3;0;1;1;2;1;1;17.11.09;W;1;0;49;2009;29.06.19;3511;13.03.16;2308;13.03.16;2308;;;
72;0;224;2308;13.03.16;3;3;2;1;1;0;1;1;17.11.09;W;1;0;49;2009;29.06.19;3511;13.03.16;2308;13.03.16;2308;;;
72;1;2308;3511;29.06.19;2;2;2;1;1;0;1;1;17.11.09;W;1;0;49;2009;29.06.19;3511;13.03.16;2308;13.03.16;2308;;;
73;0;0;1;24.03.10;0;0;0;0;0;0;1;1;24.03.10;W;1;0;46;2010;29.09.19;3476;.;.;.;.;;;
73;0;1;3476;29.09.19;3;3;7;0;1;1;1;1;24.03.10;W;1;0;46;2010;29.09.19;3476;.;.;.;.;;;
74;0;0;2000;19.12.04;0;0;0;1;0;0;1;2;29.06.99;M;0;1;60;1999;30.12.07;3106;25.04.07;2857;.;.;;;
74;0;2000;2857;25.04.07;5;5;1;1;1;2;1;2;29.06.99;M;0;1;60;1999;30.12.07;3106;25.04.07;2857;.;.;;;
74;1;2857;3106;30.12.07;2;2;1;1;1;0;1;2;29.06.99;M;0;1;60;1999;30.12.07;3106;25.04.07;2857;.;.;;;
75;0;0;1;13.04.07;0;0;0;1;0;0;1;1;13.04.07;W;1;1;57;2007;02.10.13;2364;12.05.08;395;12.05.08;395;;;
75;0;1;1065;13.03.10;3;3;0;1;1;2;1;1;13.04.07;W;1;1;57;2007;02.10.13;2364;12.05.08;395;12.05.08;395;;;
75;1;1065;2364;02.10.13;2;2;2;1;1;0;1;1;13.04.07;W;1;1;57;2007;02.10.13;2364;12.05.08;395;12.05.08;395;;;
76;0;0;27;27.08.04;0;0;0;1;0;0;0;3;31.07.04;W;1;1;53;2004;08.05.07;1011;05.09.05;401;.;.;;;
76;0;27;401;05.09.05;0;0;6;1;0;0;0;3;31.07.04;W;1;1;53;2004;08.05.07;1011;05.09.05;401;.;.;;;
76;1;407;1011;08.05.07;2;2;6;1;0;0;0;3;31.07.04;W;1;1;53;2004;08.05.07;1011;05.09.05;401;.;.;;;
77;0;0;1651;20.06.16;0;0;0;1;0;0;0;1;13.12.11;M;0;0;43;2011;07.09.19;2825;28.05.16;1628;.;.;;;
77;1;1651;2825;07.09.19;2;2;1;1;0;0;0;1;13.12.11;M;0;0;43;2011;07.09.19;2825;28.05.16;1628;.;.;;;
78;0;0;1;13.07.04;0;0;0;1;0;0;1;1;13.07.04;M;0;0;58;2004;25.08.19;5521;11.07.12;2920;11.07.12;2920;;;
78;0;1;3715;14.09.14;3;3;0;1;1;3;1;1;13.07.04;M;0;0;58;2004;25.08.19;5521;11.07.12;2920;11.07.12;2920;;;
78;1;3715;4781;15.08.17;2;2;1;1;1;0;1;1;13.07.04;M;0;0;58;2004;25.08.19;5521;11.07.12;2920;11.07.12;2920;;;
78;0;4781;5521;25.08.19;3;3;1;1;1;0;1;1;13.07.04;M;0;0;58;2004;25.08.19;5521;11.07.12;2920;11.07.12;2920;;;
79;0;0;3181;29.06.10;0;0;3;1;0;0;1;1;13.10.01;W;1;0;31;2001;13.10.19;6574;.;.;.;.;;;
79;0;3181;3746;15.01.12;0;0;3;1;0;0;1;1;13.10.01;W;1;0;31;2001;13.10.19;6574;.;.;.;.;;;
79;0;3746;4383;13.10.13;5;5;3;1;1;2;1;1;13.10.01;W;1;0;31;2001;13.10.19;6574;.;.;.;.;;;
79;0;4383;6574;13.10.19;5;5;3;1;1;4;1;1;13.10.01;W;1;0;31;2001;13.10.19;6574;.;.;.;.;;;
80;0;0;23;17.10.11;0;0;0;1;0;0;1;2;24.09.11;W;1;0;64;2011;04.03.19;2718;.;.;.;.;;;
80;0;23;2718;04.03.19;3;3;8;1;1;6;1;2;24.09.11;W;1;0;64;2011;04.03.19;2718;.;.;.;.;;;
81;0;0;1;13.03.05;0;0;0;0;0;0;1;0;13.03.05;W;1;0;53;2005;25.03.19;5125;.;.;.;.;;;
81;0;1;5125;25.03.19;3;3;7;0;1;3;1;0;13.03.05;W;1;0;53;2005;25.03.19;5125;.;.;.;.;;;
82;0;0;1;13.08.04;0;0;0;0;0;0;1;0;13.08.04;M;0;1;63;2004;29.04.09;1720;.;.;.;.;;;
82;0;1;1720;29.04.09;3;3;7;0;1;3;1;0;13.08.04;M;0;1;63;2004;29.04.09;1720;.;.;.;.;;;
83;0;0;1;02.08.10;0;0;0;1;0;0;1;1;02.08.10;M;0;1;76;2010;13.06.15;1776;08.07.14;1436;.;.;;;
83;0;1;48;19.09.10;5;5;0;1;1;7;1;1;02.08.10;M;0;1;76;2010;13.06.15;1776;08.07.14;1436;.;.;;;
83;0;48;1436;08.07.14;5;5;2;1;1;0;1;1;02.08.10;M;0;1;76;2010;13.06.15;1776;08.07.14;1436;.;.;;;
83;1;48;1776;13.06.15;2;2;2;1;1;0;1;1;02.08.10;M;0;1;76;2010;13.06.15;1776;08.07.14;1436;.;.;;;
84;0;0;1;13.02.08;0;0;0;1;0;0;1;1;13.02.08;M;0;1;63;2008;13.07.14;2342;13.04.10;790;13.04.10;790;;;
84;0;1;816;09.05.10;3;3;0;1;1;2;1;1;13.02.08;M;0;1;63;2008;13.07.14;2342;13.04.10;790;13.04.10;790;;;
84;1;816;837;30.05.10;2;2;1;1;1;0;1;1;13.02.08;M;0;1;63;2008;13.07.14;2342;13.04.10;790;13.04.10;790;;;
84;0;837;2342;13.07.14;5;5;1;1;1;0;1;1;13.02.08;M;0;1;63;2008;13.07.14;2342;13.04.10;790;13.04.10;790;;;
85;0;0;30;13.10.09;0;0;0;1;0;0;1;2;13.09.09;M;0;1;67;2009;02.06.11;627;13.03.10;181;.;.;;;
85;0;30;198;30.03.10;5;5;0;1;1;2;1;2;13.09.09;M;0;1;67;2009;02.06.11;627;13.03.10;181;.;.;;;
85;1;198;627;02.06.11;2;2;2;1;1;0;1;2;13.09.09;M;0;1;67;2009;02.06.11;627;13.03.10;181;.;.;;;
86;0;0;1;13.12.08;0;0;0;1;0;0;1;1;13.12.08;M;0;0;68;2008;24.09.19;3937;.;.;.;.;;;
86;0;1;3937;24.09.19;5;5;1;1;1;2;1;1;13.12.08;M;0;0;68;2008;24.09.19;3937;.;.;.;.;;;
87;0;0;17;07.02.09;0;0;0;1;0;0;1;2;21.01.09;W;1;0;58;2009;22.09.19;3896;07.01.14;1812;.;.;;;
87;0;17;143;13.06.09;5;5;0;1;1;7;1;2;21.01.09;W;1;0;58;2009;22.09.19;3896;07.01.14;1812;.;.;;;
87;0;143;1812;07.01.14;5;5;2;1;1;0;1;2;21.01.09;W;1;0;58;2009;22.09.19;3896;07.01.14;1812;.;.;;;
87;0;1812;3896;22.09.19;2;2;2;1;1;0;1;2;21.01.09;W;1;0;58;2009;22.09.19;3896;07.01.14;1812;.;.;;;
88;0;0;1;26.10.15;0;0;0;0;0;0;1;1;26.10.15;W;1;0;54;2015;20.01.18;817;.;.;.;.;;;
88;0;1;1441;06.10.19;3;3;7;0;1;2;1;1;26.10.15;W;1;0;54;2015;20.01.18;817;.;.;.;.;;;
89;0;0;62;13.09.08;0;0;0;0;0;0;1;12;13.07.08;M;0;0;36;2008;24.09.19;4090;.;.;.;.;;;
89;0;62;4090;24.09.19;3;3;7;0;1;3;1;2;13.07.08;M;0;0;36;2008;24.09.19;4090;.;.;.;.;;;
90;0;0;1;25.03.08;0;0;0;0;0;0;1;1;25.03.08;W;1;0;57;2008;21.07.19;4135;.;.;.;.;;;
90;0;1;4135;21.07.19;3;3;7;0;1;1;1;1;25.03.08;W;1;0;57;2008;21.07.19;4135;.;.;.;.;;;
91;0;0;810;13.05.11;0;1;0;0;0;0;0;1;22.02.09;M;0;1;78;2009;13.05.11;810;.;.;.;.;;;
92;0;0;46;06.11.11;0;0;0;0;0;0;1;1;21.09.11;W;1;0;73;2011;17.07.19;2856;.;.;.;.;;;
92;0;46;2856;17.07.19;3;3;7;0;1;3;1;1;21.09.11;W;1;0;73;2011;17.07.19;2856;.;.;.;.;;;
93;0;0;1;13.02.06;0;0;0;1;0;0;1;1;13.02.06;M;0;0;52;2006;10.08.19;4926;13.12.07;668;13.12.07;668;;;
93;0;1;3794;04.07.16;3;3;0;1;1;3;1;1;13.02.06;M;0;0;52;2006;10.08.19;4926;13.12.07;668;13.12.07;668;;;
93;1;3794;4926;10.08.19;2;2;1;1;1;0;1;1;13.02.06;M;0;0;52;2006;10.08.19;4926;13.12.07;668;13.12.07;668;;;
94;0;0;1;13.07.16;0;0;0;1;0;0;1;1;13.07.16;M;0;0;54;2016;28.07.19;1110;28.01.19;929;27.09.16;76;;;
94;0;1;942;10.02.19;5;5;0;1;1;6;1;1;13.07.16;M;0;0;54;2016;28.07.19;1110;28.01.19;929;27.09.16;76;;;
94;0;942;1110;28.07.19;5;5;1;1;1;0;1;1;13.07.16;M;0;0;54;2016;28.07.19;1110;28.01.19;929;27.09.16;76;;;
95;0;0;274;12.01.16;0;0;1;1;0;0;1;1;13.04.15;W;1;0;44;2015;01.09.19;1602;.;.;.;.;;;
95;0;244;1613;12.09.19;5;5;1;1;1;2;1;1;13.04.15;W;1;0;44;2015;01.09.19;1602;.;.;.;.;;;
96;0;0;1;13.06.15;0;0;0;0;0;0;1;1;13.06.15;W;1;0;42;2015;08.02.16;240;.;.;.;.;;;
96;0;1;240;08.02.16;3;3;7;0;1;7;1;1;13.06.15;W;1;0;42;2015;08.02.16;240;.;.;.;.;;;
97;0;0;1;13.04.13;0;0;0;1;0;0;1;1;13.04.13;M;0;0;45;2013;13.04.17;1461;.;.;13.04.17;1461;;;
97;0;1;62;14.06.13;5;5;0;1;1;2;1;1;13.04.13;M;0;0;45;2013;13.04.17;1461;.;.;13.04.17;1461;;;
97;0;62;1461;13.04.17;5;5;2;1;1;0;1;1;13.04.13;M;0;0;45;2013;13.04.17;1461;.;.;13.04.17;1461;;;
98;0;0;14;13.06.16;0;0;0;0;0;0;1;1;30.05.16;M;0;0;54;2016;23.07.19;1149;.;.;.;.;;;
98;0;14;1149;23.07.19;3;3;7;0;1;2;1;1;30.05.16;M;0;0;54;2016;23.07.19;1149;.;.;.;.;;;
99;0;0;108;29.06.11;0;0;0;1;1;1;1;2;13.03.11;M;0;0;66;2011;21.11.15;1714;06.09.15;1638;.;.;;;
99;0;108;1637;06.09.15;5;5;2;1;1;0;1;2;13.03.11;M;0;0;66;2011;21.11.15;1714;06.09.15;1638;.;.;;;
99;0;1637;1714;21.11.15;2;2;2;1;1;0;1;2;13.03.11;M;0;0;66;2011;21.11.15;1714;06.09.15;1638;.;.;;;
100;0;0;1;25.04.15;0;0;0;0;0;0;1;2;25.04.15;M;0;0;72;2015;07.10.19;1626;.;.;.;.;;;
100;0;1;1626;07.10.19;3;3;7;0;1;3;1;2;25.04.15;M;0;0;72;2015;07.10.19;1626;.;.;.;.;;;
101;0;0;1;05.11.13;0;0;0;1;0;0;1;0;05.11.13;W;1;1;78;2013;06.11.15;731;06.01.15;427;.;.;;;
101;0;1;441;20.01.15;5;5;0;1;1;2;1;0;05.11.13;W;1;1;78;2013;06.11.15;731;06.01.15;427;.;.;;;
101;1;441;731;06.11.15;2;2;2;1;1;0;1;0;05.11.13;W;1;1;78;2013;06.11.15;731;06.01.15;427;.;.;;;
102;0;0;1;13.01.10;0;0;0;1;0;0;1;1;13.01.10;M;0;1;38;2010;10.01.19;3284;11.07.17;2736;.;.;;;
102;0;1;304;13.11.10;5;5;0;1;1;7;1;1;13.01.10;M;0;1;38;2010;10.01.19;3284;11.07.17;2736;.;.;;;
102;0;204;3256;13.12.18;5;5;1;1;1;0;1;1;13.01.10;M;0;1;38;2010;10.01.19;3284;11.07.17;2736;.;.;;;
102;1;3256;3284;10.01.19;2;2;1;1;1;0;1;1;13.01.10;M;0;1;38;2010;10.01.19;3284;11.07.17;2736;.;.;;;
103;0;0;1;13.11.96;0;0;0;1;0;0;1;1;13.11.96;M;0;0;60;1996;04.11.18;8026;29.06.05;3150;29.06.05;3150;;;
103;0;1;6283;26.01.14;3;3;0;1;1;3;1;1;13.11.96;M;0;0;60;1996;04.11.18;8026;29.06.05;3150;29.06.05;3150;;;
103;1;6282;6411;03.06.14;2;2;2;1;1;0;1;1;13.11.96;M;0;0;60;1996;04.11.18;8026;29.06.05;3150;29.06.05;3150;;;
103;1;6411;8026;04.11.18;5;5;2;1;1;0;1;1;13.11.96;M;0;0;60;1996;04.11.18;8026;29.06.05;3150;29.06.05;3150;;;
104;0;0;92;13.02.10;0;0;0;1;0;0;1;1;13.11.09;W;1;1;73;2009;19.07.13;1344;.;.;.;.;;;
104;0;92;120;13.03.10;5;5;0;1;1;3;1;1;13.11.09;W;1;1;73;2009;19.07.13;1344;.;.;.;.;;;
104;0;120;1344;19.07.13;5;5;1;1;1;0;1;1;13.11.09;W;1;1;73;2009;19.07.13;1344;.;.;.;.;;;
105;0;0;1;13.11.95;0;0;0;1;0;0;1;0;13.11.95;W;1;1;42;1995;25.07.14;6829;.;.;.;.;;;
105;0;1;6829;25.07.14;3;3;8;1;1;6;1;0;13.11.95;W;1;1;42;1995;25.07.14;6829;.;.;.;.;;;
106;0;0;1;13.03.11;0;0;0;0;0;0;1;1;13.03.11;M;0;0;73;2011;07.07.14;1212;.;.;.;.;;;
106;0;1;1212;07.07.14;3;3;7;0;1;2;1;1;13.03.11;M;0;0;73;2011;07.07.14;1212;.;.;.;.;;;
107;0;0;1;12.12.10;0;0;0;0;0;0;1;1;12.12.10;M;0;1;67;2010;10.09.17;2464;.;.;.;.;;;
107;0;1;2464;10.09.17;3;3;7;0;1;2;1;1;12.12.10;M;0;1;67;2010;10.09.17;2464;.;.;.;.;;;
108;0;0;1;13.01.00;0;0;0;1;0;0;1;1;13.01.00;W;1;1;48;2000;02.03.17;6258;20.08.08;3142;20.08.08;3142;;;
108;0;1;3090;29.06.08;3;3;7;1;1;2;1;1;13.01.00;W;1;1;48;2000;02.03.17;6258;20.08.08;3142;20.08.08;3142;;;
108;1;3090;3889;06.09.10;2;2;7;1;1;4;1;1;13.01.00;W;1;1;48;2000;02.03.17;6258;20.08.08;3142;20.08.08;3142;;;
108;1;2889;6258;02.03.17;2;2;7;1;1;0;1;1;13.01.00;W;1;1;48;2000;02.03.17;6258;20.08.08;3142;20.08.08;3142;;;
109;0;0;1;22.05.08;0;0;0;1;0;0;1;1;22.05.08;W;1;1;71;2008;01.12.17;3480;.;.;.;.;;;
109;0;1;3480;01.12.17;3;2;8;1;1;2;1;1;22.05.08;W;1;1;71;2008;01.12.17;3480;.;.;.;.;;;
110;0;0;1;30.12.09;0;0;0;0;0;0;1;1;30.12.09;M;0;0;62;2010;06.12.11;706;.;.;.;.;;;
110;0;1;706;06.12.11;3;3;7;0;1;2;1;1;30.12.09;M;0;0;62;2010;06.12.11;706;.;.;.;.;;;
111;0;0;397;13.04.04;0;0;6;1;0;0;1;0;13.03.03;W;1;1;46;2003;13.05.10;2618;13.05.05;792;.;.;;;
111;0;397;792;13.05.05;5;5;6;1;1;2;1;0;13.03.03;W;1;1;46;2003;13.05.10;2618;13.05.05;792;.;.;;;
111;1;792;2618;13.05.10;2;2;6;1;1;0;1;0;13.03.03;W;1;1;46;2003;13.05.10;2618;13.05.05;792;.;.;;;
112;0;0;1;23.03.10;0;0;0;1;0;0;1;1;23.03.10;M;0;0;57;2010;24.09.19;3472;.;.;.;.;;;
112;0;1;3472;24.09.19;3;3;8;1;1;2;1;1;23.03.10;M;0;0;57;2010;24.09.19;3472;.;.;.;.;;;
113;0;0;351;29.06.95;0;0;0;1;0;0;1;0;13.07.94;W;1;0;42;1994;29.06.09;5465;29.06.08;5100;.;.;;;
113;0;351;5165;29.06.08;5;5;6;1;1;6;1;0;13.07.94;W;1;0;42;1994;29.06.09;5465;29.06.08;5100;.;.;;;
113;0;5165;5465;29.06.09;2;2;6;1;1;6;1;0;13.07.94;W;1;0;42;1994;29.06.09;5465;29.06.08;5100;.;.;;;
114;0;0;1088;12.11.10;0;1;1;1;0;0;0;2;20.11.07;M;0;1;65;2007;12.11.10;1088;.;.;.;.;;;
115;0;0;1;29.06.99;0;0;0;0;0;0;1;0;29.06.99;W;1;0;50;1999;25.09.19;7393;.;.;.;.;;;
115;0;1;7393;25.09.19;3;3;7;0;1;2;1;0;29.06.99;W;1;0;50;1999;25.09.19;7393;.;.;.;.;;;
116;0;0;1489;04.03.07;0;0;0;1;1;3;1;2;04.02.03;W;1;1;53;2003;27.01.08;1818;13.02.06;1105;.;.;;;
116;1;1489;1818;27.01.08;2;2;1;1;1;0;1;2;04.02.03;W;1;1;53;2003;27.01.08;1818;13.02.06;1105;.;.;;;
117;0;0;1;13.04.08;0;0;0;0;0;0;1;0;13.04.08;W;1;1;78;2008;29.06.14;2268;.;.;.;.;;;
117;0;1;2268;29.06.14;3;3;7;0;1;2;1;0;13.04.08;W;1;1;78;2008;29.06.14;2268;.;.;.;.;;;
118;0;0;1;13.09.94;0;0;0;1;0;0;1;1;13.09.94;W;1;1;47;1994;06.02.13;6721;19.09.09;5485;19.09.09;5485;;;
118;0;1;5485;19.09.09;3;3;0;1;1;2;1;1;13.09.94;W;1;1;47;1994;06.02.13;6721;19.09.09;5485;19.09.09;5485;;;
118;1;5485;6339;21.01.12;2;2;2;1;1;0;1;1;13.09.94;W;1;1;47;1994;06.02.13;6721;19.09.09;5485;19.09.09;5485;;;
118;1;6339;6721;06.02.13;2;2;2;1;1;4;1;1;13.09.94;W;1;1;47;1994;06.02.13;6721;19.09.09;5485;19.09.09;5485;;;
119;0;0;92;16.05.11;0;0;0;1;0;0;1;0;13.02.11;W;1;0;76;2011;16.05.11;92;.;.;.;.;;;
119;0;91;92;16.05.11;3;3;7;1;1;1;1;0;13.02.11;W;1;0;76;2011;16.05.11;92;.;.;.;.;;;
120;0;0;1795;13.08.14;0;0;0;1;0;0;0;0;13.09.09;M;0;1;77;2009;29.06.16;2481;13.08.14;1795;.;.;;;
120;1;1795;2481;29.06.16;2;2;2;1;0;0;0;0;13.09.09;M;0;1;77;2009;29.06.16;2481;13.08.14;1795;.;.;;;
121;0;0;1;30.12.11;0;0;0;1;0;0;1;0;30.12.11;W;1;0;70;2012;12.10.19;2843;30.05.12;152;30.05.12;152;;;
121;0;1;152;30.05.12;3;3;7;1;1;3;1;0;30.12.11;W;1;0;70;2012;12.10.19;2843;30.05.12;152;30.05.12;152;;;
121;1;152;2843;12.10.19;2;2;7;1;1;0;1;0;30.12.11;W;1;0;70;2012;12.10.19;2843;30.05.12;152;30.05.12;152;;;
122;0;0;1;11.10.09;0;0;0;1;0;0;1;1;11.10.09;M;0;0;50;2009;06.01.19;3374;13.01.10;94;.;.;;;
122;0;1;261;29.06.10;5;5;0;1;1;2;1;1;11.10.09;M;0;0;50;2009;06.01.19;3374;13.01.10;94;.;.;;;
122;1;261;3374;06.01.19;2;2;1;1;1;0;1;1;11.10.09;M;0;0;50;2009;06.01.19;3374;13.01.10;94;.;.;;;
123;0;0;36;19.08.18;0;0;2;1;0;0;1;1;14.07.18;M;0;0;72;2018;28.07.19;379;.;.;.;.;;;
123;0;36;379;28.07.19;5;5;2;1;1;3;1;1;14.07.18;M;0;0;72;2018;28.07.19;379;.;.;.;.;;;
124;0;0;1;10.05.18;0;0;0;0;0;0;1;1;10.05.18;M;0;1;51;2018;11.05.18;1;.;.;.;.;;;
124;1;1;1;11.05.18;3;3;7;0;1;2;1;1;10.05.18;M;0;1;51;2018;11.05.18;1;.;.;.;.;;;
125;0;0;1;13.03.09;0;0;0;1;0;0;1;1;13.03.09;M;0;0;60;2009;23.02.19;3634;.;.;.;.;;;
125;0;1;3634;23.02.19;3;3;8;1;1;6;1;1;13.03.09;M;0;0;60;2009;23.02.19;3634;.;.;.;.;;;
126;0;0;30;25.04.18;0;0;0;1;0;0;1;1;26.03.18;W;1;0;78;2018;25.08.19;517;25.04.18;30;.;.;;;
126;1;30;89;23.06.18;2;2;0;1;0;0;1;1;26.03.18;W;1;0;78;2018;25.08.19;517;25.04.18;30;.;.;;;
126;0;89;113;17.07.18;5;5;0;1;1;3;1;1;26.03.18;W;1;0;78;2018;25.08.19;517;25.04.18;30;.;.;;;
126;0;113;517;25.08.19;5;5;2;1;1;0;1;1;26.03.18;W;1;0;78;2018;25.08.19;517;25.04.18;30;.;.;;;
127;0;0;1324;29.09.19;0;0;2;1;0;0;0;1;13.02.16;M;0;0;49;2016;29.09.19;1324;.;.;.;.;;;
128;0;0;1;29.06.12;0;0;0;0;0;0;1;2;29.06.12;W;1;0;58;2012;23.02.13;239;.;.;.;.;;;
128;0;1;239;23.02.13;3;3;7;0;1;3;1;2;29.06.12;W;1;0;58;2012;23.02.13;239;.;.;.;.;;;
129;0;0;1;29.06.06;0;0;0;0;0;0;1;0;29.06.06;M;0;0;63;2006;06.10.19;4847;.;.;.;.;;;
129;0;1;4847;06.10.19;3;3;7;0;1;3;1;0;29.06.06;M;0;0;63;2006;06.10.19;4847;.;.;.;.;;;
130;0;0;1441;21.02.13;0;1;0;0;0;0;0;1;13.03.09;M;0;1;59;2009;21.02.13;1441;.;.;.;.;;;
131;0;0;1;18.09.17;0;0;0;0;0;0;1;2;18.09.17;M;0;0;73;2017;25.08.19;706;.;.;.;.;;;
131;0;1;706;25.08.19;3;3;7;0;1;2;1;2;18.09.17;M;0;0;73;2017;25.08.19;706;.;.;.;.;;;
132;0;0;1;21.11.05;0;0;0;0;0;0;1;1;21.11.05;W;1;0;58;2005;08.04.13;2695;.;.;.;.;;;
132;0;1;2695;08.04.13;3;3;7;0;1;7;1;1;21.11.05;W;1;0;58;2005;08.04.13;2695;.;.;.;.;;;
133;0;0;1;11.02.07;0;0;0;0;0;0;1;1;11.02.07;M;0;1;72;2007;13.10.07;244;.;.;.;.;;;
133;0;1;244;13.10.07;3;3;7;0;1;2;1;1;11.02.07;M;0;1;72;2007;13.10.07;244;.;.;.;.;;;
134;0;0;1;08.12.07;0;0;0;1;0;0;1;3;08.12.07;W;1;1;48;2007;09.01.08;32;.;.;.;.;;;
134;0;1;32;09.01.08;5;5;8;1;1;2;1;3;08.12.07;W;1;1;48;2007;09.01.08;32;.;.;.;.;;;
135;0;0;1;20.04.03;0;0;0;0;0;0;1;1;20.04.03;M;0;1;84;2003;24.05.11;2956;.;.;.;.;;;
135;0;1;2956;24.05.11;3;3;7;0;1;2;1;1;20.04.03;M;0;1;84;2003;24.05.11;2956;.;.;.;.;;;
136;0;0;1;02.07.15;0;1;7;0;1;1;1;1;02.07.15;W;1;1;52;2015;02.07.15;0;.;.;.;.;;;
137;0;0;1;28.02.12;0;0;0;1;0;0;1;2;28.02.12;M;0;1;42;2012;21.10.16;1697;01.03.14;732;01.03.14;732;;;
137;0;1;39;07.04.12;5;5;0;1;1;2;1;2;28.02.12;M;0;1;42;2012;21.10.16;1697;01.03.14;732;01.03.14;732;;;
137;0;39;732;01.03.14;5;5;2;1;1;0;1;2;28.02.12;M;0;1;42;2012;21.10.16;1697;01.03.14;732;01.03.14;732;;;
137;1;732;1697;21.10.16;2;2;2;1;1;0;1;2;28.02.12;M;0;1;42;2012;21.10.16;1697;01.03.14;732;01.03.14;732;;;
138;0;0;8;24.06.17;0;3;0;0;0;0;1;1;16.06.17;W;1;0;38;2017;01.09.19;807;10.10.18;481;10.10.18;481;;;
138;0;8;481;10.10.18;3;3;7;0;1;3;1;1;16.06.17;W;1;0;38;2017;01.09.19;807;10.10.18;481;10.10.18;481;;;
138;0;481;807;01.09.19;2;2;7;0;1;3;1;1;16.06.17;W;1;0;38;2017;01.09.19;807;10.10.18;481;10.10.18;481;;;
139;0;0;1;13.08.14;0;0;0;0;0;0;1;2;13.08.14;W;1;0;27;2014;19.08.19;1832;13.06.16;670;13.06.16;670;;;
139;0;1;1832;19.08.19;3;3;7;0;1;2;1;2;13.08.14;W;1;0;27;2014;19.08.19;1832;13.06.16;670;13.06.16;670;;;
140;0;0;416;19.10.19;0;2;0;1;0;0;0;1;29.08.18;W;1;0;63;2018;19.10.19;416;12.09.18;14;.;.;;;
141;0;0;202;20.03.18;0;2;0;0;0;0;0;1;30.08.17;W;1;1;80;2017;20.03.18;202;.;.;.;.;;;
142;0;0;109;02.05.17;0;0;0;1;0;0;0;0;13.01.17;M;0;1;72;2017;03.05.17;110;10.04.17;87;.;.;;;
142;1;109;110;03.05.17;2;2;2;1;0;0;0;0;13.01.17;M;0;1;72;2017;03.05.17;110;10.04.17;87;.;.;;;
143;0;0;1;13.02.17;0;0;0;0;0;0;1;1;13.02.17;M;0;0;66;2017;19.10.19;978;.;.;.;.;;;
143;0;1;978;19.10.19;3;3;7;0;1;2;1;1;13.02.17;M;0;0;66;2017;19.10.19;978;.;.;.;.;;;
144;0;0;3500;13.08.17;0;0;0;1;0;0;0;2;13.01.08;W;1;1;59;2008;09.07.18;3830;13.08.17;3500;13.08.17;3500;;;
144;1;3500;3830;09.07.18;2;2;0;1;0;0;0;2;13.01.08;W;1;1;59;2008;09.07.18;3830;13.08.17;3500;13.08.17;3500;;;
145;0;0;1;10.05.15;0;0;0;0;0;0;1;0;10.05.15;M;0;0;60;2015;05.02.17;637;.;.;.;.;;;
145;0;1;637;05.02.17;3;3;7;0;1;1;1;0;10.05.15;M;0;0;60;2015;05.02.17;637;.;.;.;.;;;